{
  "skills": [
    "OOP and design patterns GoF, MVC, DI;",
    "<b>JS</b>&nbsp;(TypeScript, Angular 2+, Node.js, Express.js, Raphael.js, Chart.js, Angular Material, Bootstrap, NPM, YARN, Angular CLI);",
    "<b>AS3</b>&nbsp;(RobotLegs, Flex SDK, Papervision3D, OSMF, VK API, Facebook API, Google Maps API, Google Flash Analytics, Tween libraries);",
    "<b>C#</b>&nbsp;(WinForms, WPF, LINQ, Unity).",
    "HTML, CSS (SCSS);",
    "RegExp, JSON, XML, ProtoBuf, Websockets, Push-notifications (via FCM);",
    "ANT, Maven;",
    "System bugtracking Redmine, JIRA, Elvis (Harman), Trello;",
    "Version control system Perforce, SVN, GIT;",
    "IntelliJ IDEA, Microsoft Visual Studio Code, Microsoft Visual Studio, Adobe CS."
  ],
  "experience": [
    {
      "title": "2015-2018 - Ignite",
      "position": "Software developer in international team",
      "description": "Support and development of financial RIA-application for trade of currency. Development of new features, bugfixing of existing functional, refactoring and optimization of old code. Using Flex, JS (the internal administration tool on Angular 2 and Node.js, the crossmobile application with Push-notifications), Java (the application for parsing data, bugfixing in existing application on Vaadin, Spring) and C# (unit testing with Ranorex)."
    },
    {
      "title": "2013-2015 – Luxoft",
      "position": "Flash developer",
      "description": "Support of auto HMI. Analysis and fixing of bugs, which related to navigation, phone and UI. Automation of processes with using .bat-scripts and C#. Work in team which contains more than 20 developers."
    },
    {
      "title": "2013 – OnlyPlay (GameInsight)",
      "position": "Flex developer",
      "description": "Development of Flex-client for slots. Work with Flex Framework, Robotlegs, Protobuf."
    },
    {
      "title": "2008-2014 – Freelance"
    },
    {
      "title": "2008-2014 – qb-interactive (remote)"
    },
    {
      "title": "2009-2011 – Goldfishka (remote)"
    },
    {
      "title": "2006-2009 – Media5",
      "position": "Flash developer",
      "description": "Programming with ActionScript 2.0, ActionScript 3.0. Development and support of flash-sites, interactive applications. Optimizations and refactoring of existing applications. Creation banners, flash-menu, flash-sites, presentations, video players, photo galleries, simple games."
    },
    {
      "title": "2002-2006 – Library",
      "position": "Computer operator",
      "description": "Typing, Microsoft Office, ABBYY FineReader, layout of the newspaper with Adobe PageMaker, programming in VB for Microsoft Access and Microsoft Excel."
    }
  ],
  "contacts": {
    "phones": [
      "+38 (068) 192-35-70",
      "+38 (066) 709-75-12"
    ],
    "email": "olexandr.fedorow@gmail.com",
    "skype": "www.olexandr",
    "telegram": "https://t.me/olexandr17",
    "linkedin": "https://www.linkedin.com/in/fedorow/"
  }
}


